Week 03 Questions
…
3.09

income.credit <- read_csv("http://grahamst.at/projects/STAT_541/STAT_541_Assignments/Week_03_Data_3.09.csv")

## Parsed with column specification:
## cols(
##   Inc = col_integer(),
##   Card = col_integer()
## )

income.credit

## # A tibble: 100 x 2
##      Inc  Card
##    <int> <int>
##  1    24     0
##  2    27     0
##  3    28     1
##  4    28     1
##  5    28     0
##  6    28     0
##  7    28     0
##  8    29     0
##  9    29     0
## 10    29     0
## # ... with 90 more rows
…
