Week 05 Questions
…
      ,rep(c(1, 0), times = c(1, 30))
      ,rep(c(1, 0), times = c(6, 73))
    )
  ) %>% 
  # If the stated letter appears in the personality column, place a 1, 
  # otherwise place a 0.
  mutate(
    `E/I` = if_else(grepl(pattern = "E", x = Personality), 1, 0)
    ,`S/N` = if_else(grepl(pattern = "S", x = Personality), 1, 0)
    ,`T/F` = if_else(grepl(pattern = "T", x = Personality), 1, 0)
    ,`J/P` = if_else(grepl(pattern = "J", x = Personality), 1, 0)
  )
myers_data

## # A tibble: 1,050 x 6
##    Personality Alcohol `E/I` `S/N` `T/F` `J/P`
##          <chr>   <dbl> <dbl> <dbl> <dbl> <dbl>
##  1        ESTJ       1     1     1     1     1
##  2        ESTJ       1     1     1     1     1
##  3        ESTJ       1     1     1     1     1
##  4        ESTJ       1     1     1     1     1
##  5        ESTJ       1     1     1     1     1
##  6        ESTJ       1     1     1     1     1
##  7        ESTJ       1     1     1     1     1
##  8        ESTJ       1     1     1     1     1
##  9        ESTJ       1     1     1     1     1
## 10        ESTJ       1     1     1     1     1
## # ... with 1,040 more rows
…
