Week 11 Questions
…
a.

berkeley_tidy <- flatten_ct(berkeley_ct)
berkeley_count <- 
  berkeley_tidy %>% 
  group_by_all() %>% 
  count() %>% 
  ungroup()
berkeley_count

## # A tibble: 24 x 4
##    Department Admitted Gender     n
##        <fctr>   <fctr> <fctr> <int>
##  1          1       No Female    19
##  2          1       No   Male   313
##  3          1      Yes Female    89
##  4          1      Yes   Male   512
##  5          2       No Female     8
##  6          2       No   Male   207
##  7          2      Yes Female    17
##  8          2      Yes   Male   353
##  9          3       No Female   391
## 10          3       No   Male   205
## # ... with 14 more rows
…
